<?xml version="1.0" encoding="UTF-8" standalone="no"?>
<svg
   xmlns:dc="http://purl.org/dc/elements/1.1/"
   xmlns:cc="http://creativecommons.org/ns#"
   xmlns:rdf="http://www.w3.org/1999/02/22-rdf-syntax-ns#"
   xmlns:svg="http://www.w3.org/2000/svg"
   xmlns="http://www.w3.org/2000/svg"
   xmlns:xlink="http://www.w3.org/1999/xlink"
   xmlns:sodipodi="http://sodipodi.sourceforge.net/DTD/sodipodi-0.dtd"
   xmlns:inkscape="http://www.inkscape.org/namespaces/inkscape"
   id="svg8"
   version="1.1"
   viewBox="0 0 1600 1000"
   height="1000"
   width="1600"
   sodipodi:docname="testMap7Large.svg"
   inkscape:version="0.92.1 r15371">
  <sodipodi:namedview
     pagecolor="#ffffff"
     bordercolor="#666666"
     borderopacity="1"
     objecttolerance="10"
     gridtolerance="10"
     guidetolerance="10"
     inkscape:pageopacity="0"
     inkscape:pageshadow="2"
     inkscape:window-width="1920"
     inkscape:window-height="1001"
     id="namedview10"
     showgrid="true"
     inkscape:zoom="0.53646522"
     inkscape:cx="1300.5504"
     inkscape:cy="530.7706"
     inkscape:window-x="-9"
     inkscape:window-y="-9"
     inkscape:window-maximized="1"
     inkscape:current-layer="svg8">
    <inkscape:grid
       type="xygrid"
       id="grid21" />
  </sodipodi:namedview>
  <defs
     id="defs2" />
  <metadata
     id="metadata5">
    <rdf:RDF>
      <cc:Work
         rdf:about="">
        <dc:format>image/svg+xml</dc:format>
        <dc:type
           rdf:resource="http://purl.org/dc/dcmitype/StillImage" />
        <dc:title />
      </cc:Work>
    </rdf:RDF>
  </metadata>
  <g
     inkscape:groupmode="layer"
     id="layer2"
     inkscape:label="Layer 1" />
  <g
     transform="translate(0,400)"
     id="layer1" />
  <g
     inkscape:groupmode="layer"
     id="layer3"
     inkscape:label="Layer 2" />
  <image
     sodipodi:absref="D:\micha\Documents\MonoGameProjekte\TowerDefenceTEST\Game1\Content\images\background7large.png"
     y="0"
     x="0"
     id="image4495"
     xlink:href="file:///D:/micha/Documents/MonoGameProjekte/TowerDefenceTEST/Game1/Content/images/background7large.png"
     preserveAspectRatio="none"
     height="1000"
     width="1600" />
  <path
     style="fill:none;stroke:#000000;stroke-width:1px;stroke-linecap:butt;stroke-linejoin:miter;stroke-opacity:1"
     d="M -200,-60 40,80 260,160 80,500 270,830 H 380 V 500 L 570,180 800,360 970,580 800,710 V 930 940 L 810,980"
     id="path4486"
     inkscape:connector-curvature="0" />
  <path
     style="fill:none;stroke:#000000;stroke-width:1px;stroke-linecap:butt;stroke-linejoin:miter;stroke-opacity:1"
     d="M 1820,-60 1560,40 1360,160 1520,500 1320,840 H 1220 V 500 L 1040,180 780,360 640,580 780,720 V 920 L 760,980"
     id="path4488"
     inkscape:connector-curvature="0" />
  <path
     style="fill:none;stroke:#000000;stroke-width:1px;stroke-linecap:butt;stroke-linejoin:miter;stroke-opacity:1"
     d="M 1840,-40 1560,60 1340,160 1520,500 1300,820 H 1240 V 500 L 1040,160 820,360 620,580 780,700 820,920 790,975"
     id="path4490"
     inkscape:connector-curvature="0" />
  <path
     style="fill:none;stroke:#000000;stroke-width:1px;stroke-linecap:butt;stroke-linejoin:miter;stroke-opacity:1"
     d="M -220,-20 60,60 240,160 100,500 260,840 H 360 L 370,490 560,180 820,360 960,600 800,720 820,940 830,980"
     id="path4492"
     inkscape:connector-curvature="0"
     sodipodi:nodetypes="ccccccccccccc" />
  <circle
     style="fill:#ff0000;fill-rule:evenodd"
     id="path4494"
     cx="158.5777"
     cy="203.15977"
     r="30" />
  <circle
     style="fill:#ff0000;fill-rule:evenodd"
     id="path4494-4"
     cx="163.09949"
     cy="503.15976"
     r="30" />
  <circle
     style="fill:#ff0000;fill-rule:evenodd"
     id="path4494-2"
     cx="312.14307"
     cy="768.08716"
     r="30" />
  <circle
     style="fill:#ff0000;fill-rule:evenodd"
     id="path4494-1"
     cx="1446.5197"
     cy="198.63799"
     r="30" />
  <circle
     style="fill:#ff0000;fill-rule:evenodd"
     id="path4494-43"
     cx="1286.114"
     cy="760.55084"
     r="30" />
  <circle
     style="fill:#ff0000;fill-rule:evenodd"
     id="path4494-3"
     cx="1430.6359"
     cy="497.13071"
     r="30" />
  <circle
     style="fill:#ff0000;fill-rule:evenodd"
     id="path4494-21"
     cx="797.47601"
     cy="256.72513"
     r="30" />
  <circle
     style="fill:#ff0000;fill-rule:evenodd"
     id="path4494-15"
     cx="585.01233"
     cy="272.20331"
     r="30" />
  <circle
     style="fill:#ff0000;fill-rule:evenodd"
     id="path4494-0"
     cx="1015.5631"
     cy="277.13071"
     r="30" />
  <circle
     style="fill:#ff0000;fill-rule:evenodd"
     id="path4494-7"
     cx="800.49054"
     cy="633.01453"
     r="30" />
  <circle
     style="fill:#ff0000;fill-rule:evenodd"
     id="path4494-6"
     cx="725.41791"
     cy="573.30505"
     r="30" />
  <circle
     style="fill:#ff0000;fill-rule:evenodd"
     id="path4494-02"
     cx="880.49054"
     cy="569.59442"
     r="30" />
  <circle
     style="fill:#ff0000;fill-rule:evenodd"
     id="path4494-76"
     cx="798.5777"
     cy="460.14523"
     r="30" />
  <circle
     style="fill:#ff0000;fill-rule:evenodd"
     id="path4494-33"
     cx="624.60675"
     cy="688.49274"
     r="30" />
  <circle
     style="fill:#ff0000;fill-rule:evenodd"
     id="path4494-20"
     cx="962.69391"
     cy="693.01453"
     r="30" />
  <circle
     style="fill:#ff0000;fill-rule:evenodd"
     id="path4494-74"
     cx="916.37433"
     cy="367.39105"
     r="30" />
  <circle
     style="fill:#ff0000;fill-rule:evenodd"
     id="path4494-30"
     cx="681.88269"
     cy="364.37653"
     r="30" />
  <circle
     style="fill:#ff0000;fill-rule:evenodd"
     id="path4494-207"
     cx="382.5788"
     cy="193.18991"
     r="30" />
  <circle
     style="fill:#ff0000;fill-rule:evenodd"
     id="path4494-25"
     cx="303.50507"
     cy="353.7106"
     r="30" />
  <circle
     style="fill:#ff0000;fill-rule:evenodd"
     id="path4494-5"
     cx="1198.5778"
     cy="175.21786"
     r="30" />
  <circle
     style="fill:#ff0000;fill-rule:evenodd"
     id="path4494-8"
     cx="1286.5197"
     cy="332.20334"
     r="30" />
  <circle
     style="fill:#ff0000;fill-rule:evenodd"
     id="path4494-12"
     cx="1142.694"
     cy="520.14526"
     r="30" />
  <circle
     style="fill:#ff0000;fill-rule:evenodd"
     id="path4494-26"
     cx="449.12854"
     cy="527.68158"
     r="30" />
  <circle
     style="fill:#ff0000;fill-rule:evenodd"
     id="path4494-81"
     cx="305.41794"
     cy="917.53632"
     r="30" />
  <circle
     style="fill:#ff0000;fill-rule:evenodd"
     id="path4494-80"
     cx="57.476028"
     cy="622.17322"
     r="30" />
  <circle
     style="fill:#ff0000;fill-rule:evenodd"
     id="path4494-766"
     cx="1280.085"
     cy="915.62347"
     r="30" />
  <circle
     style="fill:#ff0000;fill-rule:evenodd"
     id="path4494-9"
     cx="1539.2738"
     cy="626.69501"
     r="30" />
  <rect
     style="fill:#008080;fill-opacity:0.05882353;stroke:#00f9ff;stroke-width:47.20000076;stroke-linejoin:miter;stroke-miterlimit:4;stroke-dasharray:none;stroke-opacity:1"
     id="rect4661"
     width="20"
     height="20"
     x="780"
     y="100" />
  <circle
     style="fill:#ff0000;fill-rule:evenodd"
     id="path4494-81-3"
     cx="457.88162"
     cy="828.49274"
     r="30" />
  <circle
     style="fill:#ff0000;fill-rule:evenodd"
     id="path4494-81-6"
     cx="1145.0123"
     cy="828.49274"
     r="30" />
  <circle
     style="fill:#ff0000;fill-rule:evenodd"
     id="path4494-81-68"
     cx="1297.4761"
     cy="488.49274"
     r="30" />
  <circle
     style="fill:#ff0000;fill-rule:evenodd"
     id="path4494-81-9"
     cx="303.91068"
     cy="494.52179"
     r="30" />
  <circle
     style="fill:#ff0000;fill-rule:evenodd"
     id="path4494-81-69"
     cx="572.95428"
     cy="536.02905"
     r="30" />
  <circle
     style="fill:#ff0000;fill-rule:evenodd"
     id="path4494-81-5"
     cx="1023.5052"
     cy="525.47821"
     r="30" />
  <circle
     style="fill:#ff0000;fill-rule:evenodd"
     id="path4494-81-0"
     cx="160.08498"
     cy="811.10168"
     r="30" />
  <circle
     style="fill:#ff0000;fill-rule:evenodd"
     id="path4494-81-95"
     cx="1446.5197"
     cy="812.31842"
     r="30" />
  <circle
     style="fill:#ff0000;fill-rule:evenodd"
     id="path4494-81-1"
     cx="986.92523"
     cy="99.739662"
     r="30" />
  <circle
     style="fill:#ff0000;fill-rule:evenodd"
     id="path4494-81-38"
     cx="616.37439"
     cy="97.941917"
     r="30" />
  <circle
     style="fill:#ff0000;fill-rule:evenodd"
     id="path4494-81-35"
     cx="879.38892"
     cy="800.55084"
     r="30" />
  <circle
     style="fill:#ff0000;fill-rule:evenodd"
     id="path4494-81-98"
     cx="717.47607"
     cy="799.44916"
     r="30" />
</svg>
