<?xml version="1.0" encoding="UTF-8" standalone="no"?>
<svg
   xmlns:dc="http://purl.org/dc/elements/1.1/"
   xmlns:cc="http://creativecommons.org/ns#"
   xmlns:rdf="http://www.w3.org/1999/02/22-rdf-syntax-ns#"
   xmlns:svg="http://www.w3.org/2000/svg"
   xmlns="http://www.w3.org/2000/svg"
   xmlns:xlink="http://www.w3.org/1999/xlink"
   xmlns:sodipodi="http://sodipodi.sourceforge.net/DTD/sodipodi-0.dtd"
   xmlns:inkscape="http://www.inkscape.org/namespaces/inkscape"
   id="svg4531"
   version="1.1"
   viewBox="0 0 1600 1000"
   height="1000"
   width="1600"
   sodipodi:docname="testMap5Large.svg"
   inkscape:version="0.92.1 r15371">
  <sodipodi:namedview
     pagecolor="#ffffff"
     bordercolor="#666666"
     borderopacity="1"
     objecttolerance="10"
     gridtolerance="10"
     guidetolerance="10"
     inkscape:pageopacity="0"
     inkscape:pageshadow="2"
     inkscape:window-width="1920"
     inkscape:window-height="1001"
     id="namedview50"
     showgrid="false"
     inkscape:zoom="0.7633125"
     inkscape:cx="738.16596"
     inkscape:cy="500"
     inkscape:window-x="-9"
     inkscape:window-y="-9"
     inkscape:window-maximized="1"
     inkscape:current-layer="layer2" />
  <defs
     id="defs4525" />
  <metadata
     id="metadata4528">
    <rdf:RDF>
      <cc:Work
         rdf:about="">
        <dc:format>image/svg+xml</dc:format>
        <dc:type
           rdf:resource="http://purl.org/dc/dcmitype/StillImage" />
        <dc:title />
      </cc:Work>
    </rdf:RDF>
  </metadata>
  <g
     transform="translate(0,-32.41665)"
     id="layer1">
    <image
       width="1600"
       height="1000"
       preserveAspectRatio="none"
       xlink:href="file:///D:/micha/Documents/MonoGameProjekte/TowerDefenceTEST/Game1/Content/images/background5large.png"
       id="image4529"
       x="-0.81314397"
       y="33.934387" />
  </g>
  <g
     id="layer2">
    <path
       id="path4493"
       d="M -275.52239,481.98748 90.297888,340.13284 107.01972,335.11629 132.10247,333.44411 157.18521,355.18249 200.66197,395.31488 239.12218,428.75855 262.53275,455.51348 314.37042,485.61277 342.79754,493.97369 383.47078,485.66167 411.35705,452.16911 396.3074,403.6758 381.25775,346.82157 371.22465,281.60643 376.2412,233.11312 370.63417,198.63667 373.19171,167.89798 379.58557,151.17615 384.60212,132.78214 404.66831,109.37157 436.43979,94.321925 473.22782,89.305375 550.39422,81.878719 626.92123,84.829673 667.20106,90.977559 717.36655,106.02721 739.10494,122.74904 752.4824,144.48742 750.81022,197.99728 734.08839,266.55679 730.74402,346.82157 745.79367,398.65925 765.85986,440.46383 794.28698,472.23531 809.33663,487.28496 839.43592,500.66242 876.22395,467.21876 921.37289,408.69235 971.53839,343.47721 1009.9986,308.36136 1056.8197,283.27862 1084.6074,273.54039 1135.2649,279.29486 1207.9556,300.98434 1279.2201,348.49376 1317.6803,437.11946 1347.7796,495.64587 1392.9285,520.72862 1509.6944,509.39427"
       style="fill:none;stroke:#000000;stroke-width:1px;stroke-linecap:butt;stroke-linejoin:miter;stroke-opacity:1"
       transform="translate(0,-32.41665)" />
    <path
       style="fill:none;stroke:#000000;stroke-width:1px;stroke-linecap:butt;stroke-linejoin:miter;stroke-opacity:1"
       d="M -275.52239,481.98748 89.043761,720.13646 105.76559,725.15301 130.84834,726.82519 155.93108,705.08681 199.40784,664.95442 237.86805,631.51075 261.27862,604.75582 313.11629,574.65653 341.54341,566.29561 382.21665,573.32886 410.10292,608.10019 395.05327,656.5935 380.00362,713.44773 364.85543,777.3841 373.06891,826.51679 364.90434,862.91141 362.98618,893.65009 371.93758,911.65069 381.42983,938.99611 403.41418,960.48852 433.90689,976.81694 471.3343,982.47287 547.86132,986.7026 626.30649,981.83348 672.98018,982.71884 716.11242,954.24209 737.85081,937.52026 751.22827,915.78188 749.55609,862.27202 732.83426,793.71251 729.48989,713.44773 744.53954,661.61005 764.60573,619.80547 793.03285,588.03399 808.0825,572.98434 838.18179,559.60688 874.96982,593.05054 920.11876,651.57695 970.28426,716.79209 1008.7445,751.90794 1055.5656,776.99068 1083.9927,787.3683 1133.3714,784.17137 1206.0621,766.95759 1277.966,711.77554 1316.4262,623.14984 1346.5255,564.62343 1391.6744,539.54068 1506.1472,547.23145"
       id="path4495"
       transform="translate(0,-32.41665)" />
    <path
       id="path4497"
       d="M -275.52239,481.98748 60.198592,739.78461 100.33099,755.67034 130.43028,753.99816 161.36567,743.12897 196.48152,711.35749 230.76127,672.06119 270.05757,630.25661 298.48469,613.53478 334.43662,598.48513 361.19155,590.96031 399.65176,555.00837 415.5375,518.22034 392.96303,455.51348 371.22465,373.5765 362.02764,306.68918 351.84674,204.88271 367.04419,126.0934 407.17659,90.977558 448.98117,74.255727 520.04858,69.485152 604.74017,61.812521 672.21761,71.747452 734.08839,97.66629 772.5486,128.60168 774.22078,180.43935 753.31849,255.68759 754.15458,331.77193 767.53205,407.02017 821.04191,473.0714 861.1743,559.18883 930.5699,646.97844 997.45723,728.91542 1051.8032,759.01471 1121.8382,770.37586 1201.4636,749.8177 1244.9403,717.21013 1278.384,677.07774 1297.6141,623.56788 1316.0081,582.59939 1336.9104,544.97527 1391.6744,539.54068 1510.8174,529.08953"
       style="fill:none;stroke:#000000;stroke-width:1px;stroke-linecap:butt;stroke-linejoin:miter;stroke-opacity:1"
       transform="translate(0,-32.41665)" />
    <path
       id="path4499"
       d="M -275.52239,481.98748 56.854226,323.41101 108.6919,309.19745 130.84833,314.214 164.29199,334.69825 207.76875,372.32237 244.55678,404.92994 279.25458,435.86532 345.72386,467.21876 371.6427,516.13011 382.92993,623.56788 375.82315,678.74992 398.10275,781.17114 386.79015,876.90362 410.10291,919.54429 433.09543,941.70072 473.64587,948.80749 546.38583,959.60316 593.77281,965.77567 654.24164,952.56991 691.44772,938.7744 724.89138,918.29015 736.59666,897.38786 714.44023,791.20424 708.01048,737.08148 727.8177,669.55291 757.917,605.17386 782.5817,561.27906 852.81339,502.75265 897.12624,471.39922 940.603,414.12694 975.3008,358.9449 1015.4332,318.39446 1059.746,294.9839 1117.4364,269.06506 1162.3886,275.21294 1205.226,284.65593 1260.408,308.36136 1312.6637,374.4126 1327.7134,418.72545 1351.542,470.14508 1390.0022,506.93311 1509.6944,509.39427"
       style="fill:none;stroke:#000000;stroke-width:1px;stroke-linecap:butt;stroke-linejoin:miter;stroke-opacity:1"
       transform="translate(0,-32.41665)" />
    <circle
       r="34.364208"
       cy="637.43787"
       cx="308.82117"
       id="path4488"
       style="fill:#ff0000;fill-rule:evenodd" />
    <circle
       r="34.364208"
       cy="377.30325"
       cx="305.62207"
       id="path4488-0"
       style="fill:#ff0000;fill-rule:evenodd"
       transform="translate(0,-32.41665)" />
    <circle
       r="34.364208"
       cy="532.3078"
       cx="220.8083"
       id="path4488-4"
       style="fill:#ff0000;fill-rule:evenodd"
       transform="translate(0,-32.41665)" />
    <circle
       cy="908.55646"
       cx="313.69482"
       id="path4488-4-7"
       style="fill:#ff0000;fill-rule:evenodd"
       r="34.364208" />
    <circle
       r="34.364208"
       cy="68.570633"
       cx="301.53964"
       id="path4488-4-1"
       style="fill:#ff0000;fill-rule:evenodd" />
    <circle
       r="34.364208"
       cy="179.89188"
       cx="469.40045"
       id="path4488-4-1-4"
       style="fill:#ff0000;fill-rule:evenodd"
       transform="translate(0,-32.41665)" />
    <circle
       r="34.364208"
       cy="176.96725"
       cx="668.27417"
       id="path4488-4-1-3"
       style="fill:#ff0000;fill-rule:evenodd"
       transform="translate(0,-32.41665)" />
    <circle
       r="34.364208"
       cy="529.38312"
       cx="710.68103"
       id="path4488-4-1-8"
       style="fill:#ff0000;fill-rule:evenodd"
       transform="translate(0,-32.41665)" />
    <circle
       r="34.364208"
       cy="881.79907"
       cx="674.12335"
       id="path4488-4-1-7"
       style="fill:#ff0000;fill-rule:evenodd"
       transform="translate(0,-32.41665)" />
    <circle
       r="34.364208"
       cy="884.72369"
       cx="465.01352"
       id="path4488-4-1-2"
       style="fill:#ff0000;fill-rule:evenodd"
       transform="translate(0,-32.41665)" />
    <circle
       r="34.364208"
       cy="530.84546"
       cx="484.0235"
       id="path4488-4-1-5"
       style="fill:#ff0000;fill-rule:evenodd"
       transform="translate(0,-32.41665)" />
    <circle
       r="34.364208"
       cy="334.89636"
       cx="571.7619"
       id="path4488-4-1-44"
       style="fill:#ff0000;fill-rule:evenodd"
       transform="translate(0,-32.41665)" />
    <circle
       r="34.364208"
       cy="726.79456"
       cx="564.45038"
       id="path4488-4-1-9"
       style="fill:#ff0000;fill-rule:evenodd"
       transform="translate(0,-32.41665)" />
    <circle
       r="34.364208"
       cy="629.15076"
       cx="832.05249"
       id="path4488-4-1-86"
       style="fill:#ff0000;fill-rule:evenodd" />
    <circle
       r="34.364208"
       cy="352.07822"
       cx="826.05096"
       id="path4488-4-1-1"
       style="fill:#ff0000;fill-rule:evenodd" />
    <circle
       r="34.364208"
       cy="489.11038"
       cx="938.98444"
       id="path4488-4-1-26"
       style="fill:#ff0000;fill-rule:evenodd" />
    <circle
       r="34.364208"
       cy="669.76459"
       cx="1035.3131"
       id="path4488-4-1-82"
       style="fill:#ff0000;fill-rule:evenodd"
       transform="translate(0,-32.41665)" />
    <circle
       r="34.364208"
       cy="374.37863"
       cx="1033.8508"
       id="path4488-4-1-12"
       style="fill:#ff0000;fill-rule:evenodd"
       transform="translate(0,-32.41665)" />
    <circle
       r="34.364208"
       cy="487.46448"
       cx="1256.1215"
       id="path4488-4-1-6"
       style="fill:#ff0000;fill-rule:evenodd" />
    <circle
       r="34.364208"
       cy="855.47754"
       cx="1241.4982"
       id="path4488-4-1-90"
       style="fill:#ff0000;fill-rule:evenodd"
       transform="translate(0,-32.41665)" />
    <circle
       r="34.364208"
       cy="206.21339"
       cx="1226.8752"
       id="path4488-4-1-0"
       style="fill:#ff0000;fill-rule:evenodd"
       transform="translate(0,-32.41665)" />
    <circle
       r="34.364208"
       cy="587.74951"
       cx="1409.6636"
       id="path4488-4-1-03"
       style="fill:#ff0000;fill-rule:evenodd" />
    <circle
       r="34.364208"
       cy="415.32327"
       cx="1411.1259"
       id="path4488-4-1-73"
       style="fill:#ff0000;fill-rule:evenodd"
       transform="translate(0,-32.41665)" />
    <circle
       r="34.364208"
       cy="210.60033"
       cx="1381.8798"
       id="path4488-4-1-23"
       style="fill:#ff0000;fill-rule:evenodd"
       transform="translate(0,-32.41665)" />
    <circle
       r="34.364208"
       cy="849.6283"
       cx="1371.6436"
       id="path4488-4-1-40"
       style="fill:#ff0000;fill-rule:evenodd"
       transform="translate(0,-32.41665)" />
    <circle
       r="34.364208"
       cy="374.37866"
       cx="1181.5437"
       id="path4488-4-1-66"
       style="fill:#ff0000;fill-rule:evenodd"
       transform="translate(0,-32.41665)" />
    <circle
       r="34.364208"
       cy="665.37769"
       cx="1203.4785"
       id="path4488-4-1-61"
       style="fill:#ff0000;fill-rule:evenodd"
       transform="translate(0,-32.41665)" />
    <circle
       r="34.364208"
       cy="844.81195"
       cx="1061.4451"
       id="path4488-4-1-89"
       style="fill:#ff0000;fill-rule:evenodd" />
    <circle
       r="34.364208"
       cy="182.8165"
       cx="1061.6346"
       id="path4488-4-1-04"
       style="fill:#ff0000;fill-rule:evenodd"
       transform="translate(0,-32.41665)" />
    <circle
       r="34.364208"
       cy="50.136799"
       cx="822.36859"
       id="path4488-4-1-13"
       style="fill:#ff0000;fill-rule:evenodd" />
    <circle
       r="34.364208"
       cy="932.88757"
       cx="819.82471"
       id="path4488-4-1-67"
       style="fill:#ff0000;fill-rule:evenodd" />
    <circle
       r="34.364208"
       cy="976.849"
       cx="1531.035"
       id="path4488-4-1-67-8"
       style="fill:#ff0000;fill-rule:evenodd"
       transform="translate(0,-32.41665)" />
    <circle
       r="34.364208"
       cy="93.615776"
       cx="1532.4973"
       id="path4488-4-1-67-3"
       style="fill:#ff0000;fill-rule:evenodd"
       transform="translate(0,-32.41665)" />
    <path
       id="path4572"
       d="M -275.52239,449.57083 59.679066,643.73406 115.08947,668.79808 154.7314,648.33773 187.97947,607.41703 223.78508,575.44774 278.77227,530.69072 415.5375,485.80369 411.35705,419.75246 405.09426,321.8288 387.84967,230.87628 393.27504,154.92111 405.09426,115.66475 424.08306,94.867502 460.25219,77.687165 516.99916,67.146708 572.75104,66.772165 639.72819,72.416936 680.88389,84.016763 731.52067,111.14361 735.13758,145.50429 721.57416,206.08758 714.34033,260.34128 712.53188,304.64846 717.05302,356.18947 754.12638,438.47424 774.0194,465.60109 812.90121,486.39834 853.59149,423.10236 910.55787,360.71061 948.53545,311.88229 1000.0765,254.01168 1060.6598,231.40597 1128.4769,219.651 1160.1249,163.58885 1169.1672,124.70704 1206.9896,97.644448 1255.0688,85.82522 1303.8972,84.016763 1371.0749,89.02215 1402.3483,99.343204 1442.7737,114.82479 1471.1794,141.88737 1488.3597,188.90724 1503.7316,232.3102 1549.8473,339.91336"
       style="fill:none;stroke:#000000;stroke-width:1px;stroke-linecap:butt;stroke-linejoin:miter;stroke-opacity:1" />
    <path
       style="fill:none;stroke:#000000;stroke-width:1px;stroke-linecap:butt;stroke-linejoin:miter;stroke-opacity:1"
       d="M -271.73177,561.66062 63.469686,367.49739 118.88009,342.43337 158.52202,362.89372 191.77009,403.81442 227.5757,435.78371 282.56289,480.54073 419.32812,525.42776 415.14767,591.47899 408.88488,689.40265 398.03415,781.63394 403.45952,857.58911 408.88488,895.5667 427.87368,916.36395 464.04281,933.54429 523.98671,942.80597 575.90228,944.45929 639.6825,942.65083 684.67451,927.21469 735.31129,900.08784 738.9282,865.72716 725.36478,805.14387 718.13095,750.89017 725.91329,706.58299 720.84364,655.04198 757.917,572.75721 777.81002,545.63036 816.69183,524.83311 857.38211,588.12909 914.34849,650.52084 952.32607,699.34916 1003.8671,757.21977 1064.4505,779.82548 1132.2676,791.58045 1163.9156,847.6426 1172.9579,886.52441 1208.2228,919.98086 1258.8595,925.40623 1307.6879,927.21469 1375.505,925.40623 1408.0572,916.36395 1447.8432,902.80052 1474.9701,869.34408 1492.1504,822.32421 1507.5223,778.92125 1553.638,671.31809"
       id="path4574" />
    <circle
       r="34.364208"
       cy="207.16144"
       cx="818.41412"
       id="path4488-4-1-6-6"
       style="fill:#ff0000;fill-rule:evenodd" />
    <circle
       r="34.364208"
       cy="770.47369"
       cx="823.43518"
       id="path4488-4-1-6-1"
       style="fill:#ff0000;fill-rule:evenodd" />
    <rect
       y="484.43872"
       x="586.72772"
       height="11.070334"
       width="9.4888582"
       id="rect4528"
       style="fill:#008080;fill-opacity:0.05882353;stroke:#00f9ff;stroke-width:47.20000076;stroke-linejoin:miter;stroke-miterlimit:4;stroke-dasharray:none;stroke-opacity:1" />
  </g>
</svg>
