<?xml version="1.0" encoding="UTF-8" standalone="no"?>
<svg
   xmlns:dc="http://purl.org/dc/elements/1.1/"
   xmlns:cc="http://creativecommons.org/ns#"
   xmlns:rdf="http://www.w3.org/1999/02/22-rdf-syntax-ns#"
   xmlns:svg="http://www.w3.org/2000/svg"
   xmlns="http://www.w3.org/2000/svg"
   xmlns:xlink="http://www.w3.org/1999/xlink"
   xmlns:sodipodi="http://sodipodi.sourceforge.net/DTD/sodipodi-0.dtd"
   xmlns:inkscape="http://www.inkscape.org/namespaces/inkscape"
   width="1600"
   height="1000"
   viewBox="0 0 1600 1000"
   version="1.1"
   id="svg8"
   sodipodi:docname="testMap4Large.svg"
   inkscape:version="0.92.1 r15371">
  <sodipodi:namedview
     pagecolor="#ffffff"
     bordercolor="#666666"
     borderopacity="1"
     objecttolerance="10"
     gridtolerance="10"
     guidetolerance="10"
     inkscape:pageopacity="0"
     inkscape:pageshadow="2"
     inkscape:window-width="1920"
     inkscape:window-height="1001"
     id="namedview38"
     showgrid="false"
     inkscape:zoom="0.65023978"
     inkscape:cx="528.80442"
     inkscape:cy="601.49075"
     inkscape:window-x="-9"
     inkscape:window-y="-9"
     inkscape:window-maximized="1"
     inkscape:current-layer="svg8" />
  <defs
     id="defs2" />
  <metadata
     id="metadata5">
    <rdf:RDF>
      <cc:Work
         rdf:about="">
        <dc:format>image/svg+xml</dc:format>
        <dc:type
           rdf:resource="http://purl.org/dc/dcmitype/StillImage" />
        <dc:title />
      </cc:Work>
    </rdf:RDF>
  </metadata>
  <g
     id="layer1"
     transform="translate(0,400)" />
  <image
     width="1600"
     height="1000"
     preserveAspectRatio="none"
     xlink:href="file:///D:/micha/Documents/MonoGameProjekte/TowerDefenceTEST/Game1/Content/images/background4large.png"
     id="image4526"
     x="0.45836827"
     y="-0.1675823" />
  <path
     id="path4531"
     d="M 1167.0309,3.7541227 1264.0678,67.151588 1295.1196,113.72932 1302.8826,169.36383 1284.769,227.58599 1245.9543,287.10198 1174.7938,319.44762 1103.6334,346.61796 1045.4113,376.37596 994.95205,325.91675 921.20398,275.45754 817.69791,226.29216 715.48568,188.77121 621.03639,186.18356 525.29328,182.30209 426.96252,203.0033 359.68358,236.64277 305.34289,302.62789 298.87376,368.613 275.5849,408.7216 214.77509,447.53638 168.19736,495.40793 133.26406,558.8054 102.21224,619.61521 97.036936,698.53859 85.392504,772.28666 68.572768,834.3903"
     style="fill:none;stroke:#000000;stroke-width:1px;stroke-linecap:butt;stroke-linejoin:miter;stroke-opacity:1" />
  <path
     id="path4533"
     d="M 1167.0309,3.7541227 1253.7172,85.265149 1284.769,133.1367 1282.1814,208.1786 1221.3716,284.51432 1121.747,323.3291 1055.7619,354.38092 996.24588,278.0452 892.73981,237.9366 847.45591,217.23538 738.77454,183.59591 655.96969,168.07 564.10806,159.01322 452.83904,174.53913 346.74532,224.99834 280.7602,306.50936 272.99725,375.08213 200.543,432.01047 119.03197,526.45975 84.098678,615.73373 62.103639,756.76075 46.577729,842.15325"
     style="fill:none;stroke:#000000;stroke-width:1px;stroke-linecap:butt;stroke-linejoin:miter;stroke-opacity:1" />
  <path
     id="path4535"
     d="M 1592.6996,390.60804 1524.1268,338.85501 1477.5491,296.15876 1372.7492,271.57607 1289.9443,263.81311 1201.9642,279.33902 1120.4532,307.80319 1063.5248,337.56118 1085.5199,385.43274 1151.505,488.9388 1164.4432,596.32635 1121.747,642.90408 1010.478,672.66207 895.25359,699.97298 756.8881,695.95093 668.90795,675.24972 614.56726,642.90408 571.87101,670.07442 502.00442,764.5237 417.90574,834.3903 235.4763,908.13837 157.84675,927.54575"
     style="fill:none;stroke:#000000;stroke-width:1px;stroke-linecap:butt;stroke-linejoin:miter;stroke-opacity:1"
     inkscape:connector-curvature="0"
     sodipodi:nodetypes="cccccccccccccccccccccc" />
  <path
     id="path4537"
     d="M 1592.6996,390.60804 1502.1318,334.97353 1407.6825,301.33406 1282.1814,284.51432 1203.258,301.33406 1103.6334,346.61796 1085.5199,360.85005 1119.1593,421.65986 1130.8038,482.46967 1142.4482,558.8054 1113.984,614.43991 1045.4113,657.13616 905.6042,679.27177 797.92117,687.67805 712.89802,668.78059 600.33518,636.43495 542.11302,724.4151 434.72547,792.98787 354.50827,840.85942 247.12073,878.38037 159.14058,899.08159"
     style="fill:none;stroke:#000000;stroke-width:1px;stroke-linecap:butt;stroke-linejoin:miter;stroke-opacity:1"
     inkscape:connector-curvature="0"
     sodipodi:nodetypes="ccccccccccccccccccccc" />
  <path
     id="path4539"
     d="M 1592.6996,390.60804 1551.2972,488.9388 1489.1935,548.45479 1371.4554,595.03252 1297.7073,609.2646 1219.4949,601.44355 1164.4432,596.32635 1134.6852,595.03252 1152.7988,508.34619 1119.1593,421.65986 1068.7001,385.43274 1011.7718,323.3291 908.26572,272.86989 787.93992,218.52921 715.48568,181.73263 613.27344,174.53913 509.76737,171.95148 398.49835,183.59591 333.80706,215.94156 289.81698,267.69459 258.76516,340.14883 241.94543,404.84013 187.60474,461.76846 102.21224,543.27949 67.278942,659.72381 56.928336,732.17806 37.520949,811.10143"
     style="fill:none;stroke:#000000;stroke-width:1px;stroke-linecap:butt;stroke-linejoin:miter;stroke-opacity:1"
     inkscape:connector-curvature="0"
     sodipodi:nodetypes="ccccccccccccccccccccccccccc" />
  <path
     id="path4541"
     d="M 1592.6996,390.60804 1518.9515,504.46471 1430.9714,552.33627 1346.8727,582.09426 1230.4283,585.97574 1170.9124,571.74366 1156.6803,468.23759 1068.7001,385.43274 993.65823,293.57111 793.11522,208.1786 655.96969,168.07 533.05624,148.66261 425.66869,170.65765 316.98732,249.58103 282.05403,346.61796 240.6516,417.77838 165.6097,516.10915 90.567807,639.0226 78.923375,723.12128 62.103639,818.86439"
     style="fill:none;stroke:#000000;stroke-width:1px;stroke-linecap:butt;stroke-linejoin:miter;stroke-opacity:1" />
  <path
     id="path4545"
     d="M 1560.3539,952.12844 1490.4873,849.91621 1446.4973,748.99779 1349.4603,646.78555 1278.2999,601.50165 1178.6753,583.38809 1119.1593,421.65986 1046.7051,359.55622 890.15216,246.99338 699.95977,177.63671 476.1279,186.18356 359.68358,236.64277 305.34289,302.62789 292.40463,398.371 170.78501,452.71168 76.335723,604.0893 56.928336,732.17806 47.871555,825.33352"
     style="fill:none;stroke:#000000;stroke-width:1px;stroke-linecap:butt;stroke-linejoin:miter;stroke-opacity:1"
     inkscape:connector-curvature="0"
     sodipodi:nodetypes="cccccccccccccccccc" />
  <path
     id="path4547"
     d="M 1560.3539,952.12844 1499.5441,829.21499 1432.2652,710.18302 1340.4035,623.49669 1212.3148,584.68191 1134.6852,582.09426 1094.5766,632.55347 954.81441,677.39473 795.70288,697.24476 668.90795,675.24972 551.1698,641.61025 459.30816,591.15104 395.9107,554.92392 331.21941,463.06229 287.22933,417.77838 256.17751,397.07717 151.37762,504.46471 107.38754,595.03252 80.217201,693.36328 69.866594,787.81257 47.871555,825.33352"
     style="fill:none;stroke:#000000;stroke-width:1px;stroke-linecap:butt;stroke-linejoin:miter;stroke-opacity:1"
     inkscape:connector-curvature="0"
     sodipodi:nodetypes="ccccccccccccccccccccc" />
  <path
     id="path4551"
     d="M 1559.0601,970.24201 1276.1555,945.5044 1147.483,889.72932 1065.4025,837.68797 1006.892,772.85611 951.84843,712.1797 1125.0446,625.50054 1139.8605,505.75854 1115.2779,398.371 980.71997,303.92171 838.39913,197.82799 699.95977,186.18356 564.10806,159.01322 476.1279,186.18356 379.09096,215.94156 320.8688,274.16372 287.22933,360.85005 240.6516,417.77838 139.73319,513.52149 90.567807,639.0226 63.397465,799.457"
     style="fill:none;stroke:#000000;stroke-width:1px;stroke-linecap:butt;stroke-linejoin:miter;stroke-opacity:1"
     inkscape:connector-curvature="0"
     sodipodi:nodetypes="ccccccccccccccccccccc" />
  <path
     id="path4553"
     d="M 1560.3539,952.12844 1441.322,932.72106 1291.2382,931.42723 1133.3914,860.26681 1016.9471,765.81753 969.49007,703.29218 838.39913,708.88919 614.56726,642.90408 551.1698,641.61025 473.54025,575.62513 359.68358,500.58324 287.22933,417.77838 241.94543,404.84013 151.37762,459.18081 81.511026,589.85722 97.036936,698.53859 62.103639,818.86439"
     style="fill:none;stroke:#000000;stroke-width:1px;stroke-linecap:butt;stroke-linejoin:miter;stroke-opacity:1"
     inkscape:connector-curvature="0"
     sodipodi:nodetypes="ccccccccccccccccc" />
  <path
     id="path4555"
     d="M 1592.6996,390.60804 1477.5491,296.15876 1407.6825,301.33406 1282.1814,284.51432 1167.0309,301.33406 1085.5199,360.85005 1103.6334,408.7216 1156.6803,468.23759 1142.4482,558.8054 1113.984,614.43991 1010.478,672.66207 870.98109,675.31646 722.79399,705.39227 592.57222,664.89911 517.53033,631.25964 408.84896,540.69184 331.21941,463.06229 256.17751,397.07717 170.78501,452.71168 102.21224,619.61521 62.103639,818.86439"
     style="fill:none;stroke:#000000;stroke-width:1px;stroke-linecap:butt;stroke-linejoin:miter;stroke-opacity:1"
     inkscape:connector-curvature="0"
     sodipodi:nodetypes="ccccccccccccccccccccc" />
  <path
     id="path4557"
     d="M 1167.0309,3.7541227 1253.7172,85.265149 1284.769,133.1367 1282.1814,208.1786 1245.9543,287.10198 1085.5199,360.85005 1119.1593,421.65986 1137.2729,531.63506 1134.6852,595.03252 1010.478,672.66207 932.84841,711.47684 756.8881,695.95093 556.24279,627.64669 514.15863,594.71126 400.71438,545.30812 346.73687,500.47934 293.67424,442.84234 267.14292,419.05564 196.6977,443.75721 103.38065,576.4138 62.103639,818.86439"
     style="fill:none;stroke:#000000;stroke-width:1px;stroke-linecap:butt;stroke-linejoin:miter;stroke-opacity:1" />
  <path
     id="path4559"
     d="M 1165.7371,24.455336 1089.4013,37.393594 993.65823,74.914542 901.79659,80.089846 826.7547,86.558975 763.35723,117.61079 723.24863,169.36383 655.96969,168.07 509.76737,171.95148 412.73043,197.82799 346.74532,224.99834 295.13286,292.85391 279.18523,360.34729 287.22933,417.77838 353.21445,517.40297 395.9107,554.92392 517.53033,631.25964 571.87101,655.84233 502.00442,764.5237 443.78225,816.27673 263.94047,893.90628 157.84675,927.54575"
     style="fill:none;stroke:#000000;stroke-width:1px;stroke-linecap:butt;stroke-linejoin:miter;stroke-opacity:1"
     inkscape:connector-curvature="0"
     sodipodi:nodetypes="cccccccccccccccccccccc" />
  <path
     id="path4561"
     d="M 1592.6996,390.60804 1518.9515,504.46471 1386.9813,575.62513 1231.7222,598.914 1151.505,592.44487 1022.1224,685.60033 818.1816,715.87105 661.14499,695.95093 514.15863,594.71126 407.55513,517.40297 341.57002,432.01047 292.40463,398.371 200.543,432.01047 103.38065,576.4138 80.217201,693.36328 85.392504,772.28666 81.511026,826.62734"
     style="fill:none;stroke:#000000;stroke-width:1px;stroke-linecap:butt;stroke-linejoin:miter;stroke-opacity:1"
     inkscape:connector-curvature="0"
     sodipodi:nodetypes="ccccccccccccccccc" />
  <ellipse
     cy="599.19666"
     cx="359.80859"
     id="path4563"
     style="fill:#ff0000;fill-rule:evenodd;stroke-width:0.96083009"
     rx="28.068489"
     ry="26.648401" />
  <ellipse
     cy="472.55438"
     cx="257.95111"
     id="path4563-0"
     style="fill:#ff0000;fill-rule:evenodd;stroke-width:0.96083009"
     rx="28.068489"
     ry="26.648401" />
  <ellipse
     cy="343.60638"
     cx="211.22395"
     id="path4563-8"
     style="fill:#ff0000;fill-rule:evenodd;stroke-width:0.96083009"
     rx="28.068489"
     ry="26.648401" />
  <ellipse
     cy="167.56842"
     cx="301.77628"
     id="path4563-01"
     style="fill:#ff0000;fill-rule:evenodd;stroke-width:0.96083009"
     rx="28.068489"
     ry="26.648401" />
  <ellipse
     cy="107.91"
     cx="678.15118"
     id="path4563-1"
     style="fill:#ff0000;fill-rule:evenodd;stroke-width:0.96083009"
     rx="28.068489"
     ry="26.648401" />
  <ellipse
     cy="230.2628"
     cx="1174.1118"
     id="path4563-3"
     style="fill:#ff0000;fill-rule:evenodd;stroke-width:0.96083009"
     rx="28.068489"
     ry="26.648401" />
  <ellipse
     cy="524.17712"
     cx="1330.6666"
     id="path4563-19"
     style="fill:#ff0000;fill-rule:evenodd;stroke-width:0.96083009"
     rx="28.068489"
     ry="26.648401" />
  <ellipse
     cy="679.73389"
     cx="1300.9143"
     id="path4563-29"
     style="fill:#ff0000;fill-rule:evenodd;stroke-width:0.96083009"
     rx="28.068489"
     ry="26.648401" />
  <ellipse
     cy="563.59192"
     cx="1073.014"
     id="path4563-6"
     style="fill:#ff0000;fill-rule:evenodd;stroke-width:0.96083009"
     rx="28.068489"
     ry="26.648401" />
  <rect
     y="415.71426"
     x="701.79919"
     height="32.704857"
     width="35.72353"
     id="rect4664"
     style="fill:#00000f;fill-opacity:0.05882353;stroke:#00ff00;stroke-width:45.35118103;stroke-linejoin:miter;stroke-miterlimit:4;stroke-dasharray:none;stroke-opacity:1" />
  <ellipse
     cy="340.43622"
     cx="355.07889"
     id="path4563-73-6"
     style="fill:#ff0000;fill-rule:evenodd;stroke-width:0.96083009"
     rx="28.068489"
     ry="26.648401" />
  <ellipse
     cy="568.79712"
     cx="597.44183"
     id="path4563-73-4"
     style="fill:#ff0000;fill-rule:evenodd;stroke-width:0.96083009"
     rx="28.068489"
     ry="26.648401" />
  <ellipse
     cy="621.64429"
     cx="915.8667"
     id="path4563-73-7"
     style="fill:#ff0000;fill-rule:evenodd;stroke-width:0.96083009"
     rx="28.068489"
     ry="26.648401" />
  <ellipse
     cy="392.89819"
     cx="1003.6862"
     id="path4563-73-9"
     style="fill:#ff0000;fill-rule:evenodd;stroke-width:0.96083009"
     rx="28.068489"
     ry="26.648401" />
  <ellipse
     cy="241.83105"
     cx="706.44354"
     id="path4563-73-3"
     style="fill:#ff0000;fill-rule:evenodd;stroke-width:0.96083009"
     rx="28.068489"
     ry="26.648401" />
  <ellipse
     cy="670.41492"
     cx="489.88898"
     id="path4563-73-83"
     style="fill:#ff0000;fill-rule:evenodd;stroke-width:0.96083009"
     rx="28.068489"
     ry="26.648401" />
  <path
     inkscape:connector-curvature="0"
     id="path4559-2"
     d="M 1181.263,38.68742 1104.9271,51.62568 1009.1841,89.14663 917.32244,94.32193 842.28054,100.79106 778.88314,131.84288 738.77454,183.59591 667.97625,174.76074 525.29325,186.18356 428.25631,212.06007 362.2712,239.23042 306.63669,309.09701 291.69458,377.09315 312.81033,432.01046 368.74033,531.63505 411.43658,569.156 533.05621,645.49172 587.39684,670.07441 517.5303,778.75578 459.30813,830.50881 279.46635,908.13836 173.37263,941.77783"
     style="fill:none;stroke:#000000;stroke-width:1px;stroke-linecap:butt;stroke-linejoin:miter;stroke-opacity:1"
     sodipodi:nodetypes="cccccccccccccccccccccc" />
  <ellipse
     cy="761.59747"
     cx="902.74365"
     id="path4563-03"
     style="fill:#ff0000;fill-rule:evenodd;stroke-width:0.96083009"
     rx="28.068489"
     ry="26.648401" />
  <ellipse
     cy="308.59641"
     cx="859.2804"
     id="path4563-73-7-8"
     style="fill:#ff0000;fill-rule:evenodd;stroke-width:0.96083009"
     rx="28.068489"
     ry="26.648401" />
  <ellipse
     cy="150.14525"
     cx="857.41809"
     id="path4563-73-7-4"
     style="fill:#ff0000;fill-rule:evenodd;stroke-width:0.96083009"
     rx="28.068489"
     ry="26.648401" />
  <ellipse
     cy="341.84735"
     cx="1266.6301"
     id="path4563-73-7-9"
     style="fill:#ff0000;fill-rule:evenodd;stroke-width:0.96083009"
     rx="28.068489"
     ry="26.648401" />
  <ellipse
     cy="836.99518"
     cx="1206.0276"
     id="path4563-73-7-41"
     style="fill:#ff0000;fill-rule:evenodd;stroke-width:0.96083009"
     rx="28.068489"
     ry="26.648401" />
  <ellipse
     cy="753.61853"
     cx="752.17444"
     id="path4563-73-7-93"
     style="fill:#ff0000;fill-rule:evenodd;stroke-width:0.96083009"
     rx="28.068489"
     ry="26.648401" />
  <ellipse
     cy="231.99004"
     cx="503.33594"
     id="path4563-73-7-3"
     style="fill:#ff0000;fill-rule:evenodd;stroke-width:0.96083009"
     rx="28.068489"
     ry="26.648401" />
  <ellipse
     cy="732.3764"
     cx="614.43079"
     id="path4563-73-7-33"
     style="fill:#ff0000;fill-rule:evenodd;stroke-width:0.96083009"
     rx="28.068489"
     ry="26.648401" />
  <ellipse
     cy="480.20374"
     cx="462.59378"
     id="path4563-73-7-1"
     style="fill:#ff0000;fill-rule:evenodd;stroke-width:0.96083009"
     rx="28.068489"
     ry="26.648401" />
  <ellipse
     cy="621.60596"
     cx="761.8584"
     id="path4563-73-7-2"
     style="fill:#ff0000;fill-rule:evenodd;stroke-width:0.96083009"
     rx="28.068489"
     ry="26.648401" />
  <ellipse
     cy="637.38141"
     cx="153.15263"
     id="path4563-73-7-14"
     style="fill:#ff0000;fill-rule:evenodd;stroke-width:0.96083009"
     rx="28.068489"
     ry="26.648401" />
  <ellipse
     cy="786.79742"
     cx="351.81732"
     id="path4563-73-7-0"
     style="fill:#ff0000;fill-rule:evenodd;stroke-width:0.96083009"
     rx="28.068489"
     ry="26.648401" />
  <ellipse
     cy="108.77827"
     cx="475.48566"
     id="path4563-73-7-7"
     style="fill:#ff0000;fill-rule:evenodd;stroke-width:0.96083009"
     rx="28.068489"
     ry="26.648401" />
  <ellipse
     cy="657.04956"
     cx="1173.4133"
     id="path4563-19-3"
     style="fill:#ff0000;fill-rule:evenodd;stroke-width:0.96083009"
     rx="28.068489"
     ry="26.648401" />
  <ellipse
     cy="383.30441"
     cx="1156.4965"
     id="path4563-19-1"
     style="fill:#ff0000;fill-rule:evenodd;stroke-width:0.96083009"
     rx="28.068489"
     ry="26.648401" />
  <ellipse
     cy="264.88657"
     cx="1061.147"
     id="path4563-19-7"
     style="fill:#ff0000;fill-rule:evenodd;stroke-width:0.96083009"
     rx="28.068489"
     ry="26.648401" />
  <ellipse
     cy="534.01807"
     cx="1210.3228"
     id="path4563-19-1-9"
     style="fill:#ff0000;fill-rule:evenodd;stroke-width:0.96083009"
     rx="28.068489"
     ry="26.648401" />
  <ellipse
     cy="720.10321"
     cx="1056.5333"
     id="path4563-19-1-5"
     style="fill:#ff0000;fill-rule:evenodd;stroke-width:0.96083009"
     rx="28.068489"
     ry="26.648401" />
  <ellipse
     cy="155.69606"
     cx="1002.707"
     id="path4563-19-1-2"
     style="fill:#ff0000;fill-rule:evenodd;stroke-width:0.96083009"
     rx="28.068489"
     ry="26.648401" />
</svg>
