<?xml version="1.0" encoding="UTF-8" standalone="no"?>
<svg
   xmlns:dc="http://purl.org/dc/elements/1.1/"
   xmlns:cc="http://creativecommons.org/ns#"
   xmlns:rdf="http://www.w3.org/1999/02/22-rdf-syntax-ns#"
   xmlns:svg="http://www.w3.org/2000/svg"
   xmlns="http://www.w3.org/2000/svg"
   xmlns:xlink="http://www.w3.org/1999/xlink"
   xmlns:sodipodi="http://sodipodi.sourceforge.net/DTD/sodipodi-0.dtd"
   xmlns:inkscape="http://www.inkscape.org/namespaces/inkscape"
   id="svg8"
   version="1.1"
   viewBox="0 0 1600 1000"
   height="1000"
   width="1600"
   sodipodi:docname="testMap3Large.svg"
   inkscape:version="0.92.1 r15371">
  <sodipodi:namedview
     pagecolor="#ffffff"
     bordercolor="#666666"
     borderopacity="1"
     objecttolerance="10"
     gridtolerance="10"
     guidetolerance="10"
     inkscape:pageopacity="0"
     inkscape:pageshadow="2"
     inkscape:window-width="1920"
     inkscape:window-height="1001"
     id="namedview10"
     showgrid="false"
     inkscape:zoom="5.4290314"
     inkscape:cx="132.06258"
     inkscape:cy="1019.0928"
     inkscape:window-x="-9"
     inkscape:window-y="-9"
     inkscape:window-maximized="1"
     inkscape:current-layer="svg8">
    <inkscape:grid
       type="xygrid"
       id="grid21" />
  </sodipodi:namedview>
  <defs
     id="defs2" />
  <metadata
     id="metadata5">
    <rdf:RDF>
      <cc:Work
         rdf:about="">
        <dc:format>image/svg+xml</dc:format>
        <dc:type
           rdf:resource="http://purl.org/dc/dcmitype/StillImage" />
        <dc:title />
      </cc:Work>
    </rdf:RDF>
  </metadata>
  <g
     transform="translate(0,400)"
     id="layer1" />
  <image
     sodipodi:absref="D:\micha\Documents\MonoGameProjekte\TowerDefenceTEST\Game1\Content\images\background3Large.png"
     y="0.3912386"
     x="0.32773638"
     id="image4545"
     xlink:href="file:///D:/micha/Documents/MonoGameProjekte/TowerDefenceTEST/Game1/Content/images/background3Large.png"
     preserveAspectRatio="none"
     height="999.79449"
     width="1599.4954" />
  <path
     style="fill:none;stroke:#00ff00;stroke-width:1px;stroke-linecap:butt;stroke-linejoin:miter;stroke-opacity:1"
     d="M 50.493551,-71.661467 104.41473,84.219937 124.80731,265.55696 137.60806,294.35865 188.81106,310.35959 241.61416,326.36053 284.81669,343.96156 320.01875,377.56353 340.81997,428.76653 347.22035,495.97047 334.4196,561.57431 299.21753,639.9789 257.6151,716.7834 228.81341,775.98687 238.41397,827.18987 299.21753,871.9925 400.02344,883.19316 488.0286,854.39147 548.83216,790.38772 622.43647,718.3835 686.44022,657.57994 736.04313,630.37834 798.44679,636.77872 865.65072,687.98172 923.2541,758.38584 953.65588,843.19081 1040.0609,900.79419 1140.8668,927.99578 1212.8711,915.19503 1329.6779,889.59353"
     id="path4518"
     inkscape:connector-curvature="0"
     sodipodi:nodetypes="cccccccccccccccccccccccccccccc" />
  <path
     style="fill:none;stroke:#00ff00;stroke-width:1px;stroke-linecap:butt;stroke-linejoin:miter;stroke-opacity:1"
     d="M -54.520996,-66.823121 101.88502,114.43598 112.00656,291.15847 134.40788,323.16034 174.41022,340.76137 249.61463,356.76231 280.01641,375.96343 308.8181,419.16597 320.01875,468.76887 316.81856,523.17206 294.41725,588.7759 236.81388,694.38209 209.61228,742.3849 204.812,814.38912 246.41444,875.19269 320.01875,908.79466 428.82513,910.39475 510.42991,873.59259 572.83357,807.98875 625.63666,750.38537 697.64088,684.78153 734.44304,667.1805 782.44585,663.98031 824.04829,699.18237 884.85185,764.78622 915.25363,827.18987 947.2555,884.79325 1025.6601,929.59587 1112.0652,951.99719 1240.0727,942.39662 1340.8786,916.79512"
     id="path4520"
     inkscape:connector-curvature="0"
     sodipodi:nodetypes="ccccccccccccccccccccccccccccccc" />
  <path
     style="fill:none;stroke:#00ff00;stroke-width:1px;stroke-linecap:butt;stroke-linejoin:miter;stroke-opacity:1"
     d="M -126.566,34.806404 116.31755,90.775265 350.42053,73.545714 414.42428,78.345995 452.82653,113.54806 488.0286,167.95125 548.83216,198.35303 630.43694,223.95453 699.24097,212.75387 761.64463,166.35115 808.04735,115.14815 867.25082,83.146277 926.45429,75.145808 988.81593,72.808693 1009.6592,78.345995 1035.2607,92.746839 1068.8626,147.15003 1076.8631,172.75153 1086.4637,201.55321 1108.865,243.15565 1174.4688,255.9564 1236.8725,228.75481 1289.6756,182.35209 1360.0797,150.35021 1406.4824,145.54993 1473.6864,188.75246 1507.2883,247.95593 1502.488,345.56165 1512.0886,411.1655 1494.4876,467.16878 1467.286,527.97234 1457.6854,619.17769 1486.4871,713.58322"
     id="path4522"
     inkscape:connector-curvature="0"
     sodipodi:nodetypes="ccccccccccccccccccccccccccccccccc" />
  <path
     style="fill:none;stroke:#00ff00;stroke-width:1px;stroke-linecap:butt;stroke-linejoin:miter;stroke-opacity:1"
     d="M -130.02713,3.9932634 116.83945,115.37195 379.22222,97.54712 424.02485,127.9489 468.82747,179.1519 537.6315,230.3549 627.23675,249.55603 718.4421,231.955 782.44585,191.95265 833.64885,129.549 896.0525,111.94796 969.57278,105.71565 1011.2593,118.34834 1054.4618,177.55181 1089.6638,249.55603 1156.8678,284.75809 1246.473,257.5565 1302.4763,217.55415 1376.0806,179.1519 1432.0839,191.95265 1462.4857,257.5565 1475.2864,414.36568 1456.0853,491.17018 1440.0844,593.57619 1435.2841,639.9789 1452.8851,721.58369"
     id="path4524"
     inkscape:connector-curvature="0"
     sodipodi:nodetypes="cccccccccccccccccccccccccc" />
  <path
     style="fill:none;stroke:#00ff00;stroke-width:1.0388552px;stroke-linecap:butt;stroke-linejoin:miter;stroke-opacity:1"
     d="M -34.7086,-72.03572 96.52508,115.3421 112.27527,258.07803 125.30147,288.62342 177.40627,305.59308 231.13936,322.56275 275.10278,341.22937 310.92482,376.86566 332.0924,431.16858 338.60551,502.44116 325.5793,572.01678 289.75725,655.16811 247.42211,736.62249 218.11316,799.41024 227.8828,853.71316 289.75725,901.22821 392.33858,913.10699 481.89371,882.56159 543.76815,814.68294 618.66879,738.31946 683.7998,673.83475 734.27633,644.98632 797.77905,651.77419 866.16659,706.07711 924.7845,780.7436 955.72173,870.68282 1043.6485,931.77361 1146.2297,960.62203 1219.5022,947.0463 1338.3662,919.89483"
     id="path4518-2"
     inkscape:connector-curvature="0"
     sodipodi:nodetypes="cccccccccccccccccccccccccccccc" />
  <path
     style="fill:none;stroke:#00ff00;stroke-width:0.9792552px;stroke-linecap:butt;stroke-linejoin:miter;stroke-opacity:1"
     d="M 10.051374,-68.014036 117.99814,108.00273 121.85205,300.48063 144.21638,331.21929 184.15266,348.12555 259.23289,363.49488 289.58446,381.93808 318.33859,423.43528 329.52075,471.0802 326.32584,523.33593 303.96152,586.35018 246.45327,687.78777 219.29659,733.89577 214.50424,803.05776 256.03798,861.46122 329.52075,893.73682 438.14745,895.27375 519.61748,859.92428 581.91809,796.91003 634.63398,741.58043 706.5193,678.56618 743.26069,661.65991 791.18423,658.58605 832.71797,692.39857 893.42113,755.41284 923.77271,815.35322 955.72173,870.68282 1033.9969,913.7169 1120.2593,935.23405 1248.0554,926.01242 1348.6949,901.42148"
     id="path4520-0"
     inkscape:connector-curvature="0"
     sodipodi:nodetypes="ccccccccccccccccccccccccccccccc" />
  <path
     style="fill:none;stroke:#00ff00;stroke-width:1.00666285px;stroke-linecap:butt;stroke-linejoin:miter;stroke-opacity:1"
     d="M -75.50977,-47.508737 116.5455,83.146278 374.66606,78.345998 420.0677,108.74778 465.46933,159.95078 535.19327,211.15378 625.99655,230.35491 718.42131,212.75388 783.28079,172.75153 835.16838,110.34788 898.40636,92.746838 974.0365,85.735494 1015.1534,99.147218 1058.9336,158.35069 1094.6062,230.35491 1162.7087,265.55697 1253.512,238.35538 1310.264,198.35303 1384.8524,159.95078 1441.6045,172.75153 1472.4127,238.35538 1485.3846,395.16456 1465.9268,471.96906 1449.7119,574.37507 1444.8475,620.77778 1462.6838,702.38257"
     id="path4524-1"
     inkscape:connector-curvature="0"
     sodipodi:nodetypes="cccccccccccccccccccccccccc" />
  <path
     style="fill:none;stroke:#00ff00;stroke-width:0.97552562px;stroke-linecap:butt;stroke-linejoin:miter;stroke-opacity:1"
     d="M -125.23965,-41.280796 111.94575,108.46291 352.68479,94.346937 415.81558,98.978293 453.69406,132.94157 488.416,185.43028 548.39025,214.7622 628.88201,239.46277 696.74761,228.65627 758.30014,183.88649 804.06996,134.48535 862.46595,103.60965 920.86193,95.890723 982.00474,91.995532 1002.932,98.978293 1028.1843,112.87236 1061.3279,165.36107 1069.2193,190.06164 1078.689,217.84977 1100.7847,257.98819 1165.4937,270.33847 1227.0463,244.09413 1279.1292,199.32435 1348.5731,168.44863 1394.3429,163.81728 1460.6303,205.49948 1493.7739,262.61955 1489.039,356.79046 1498.5087,420.08567 1481.1477,474.11816 1454.3172,532.782 1444.8475,620.77778 1473.2564,711.86112"
     id="path4522-5"
     inkscape:connector-curvature="0"
     sodipodi:nodetypes="ccccccccccccccccccccccccccccccccc" />
  <path
     style="fill:none;stroke:#00ff00;stroke-width:1.01454222px;stroke-linecap:butt;stroke-linejoin:miter;stroke-opacity:1"
     d="M -113.54145,-8.6921648 115.41499,99.15851 374.90017,77.252668 440.6276,146.36957 531.57405,193.66299 634.97518,244.91512 682.70967,285.49271 713.39613,324.91094 730.44417,371.28531 737.26338,440.84688 731.58071,496.49614 741.80952,569.53579 762.26716,619.38825 816.82087,672.71879 882.80824,760.95835 938.43018,864.01311 1006.6223,917.34365 1123.6855,966.03675 1224.8371,953.28379 1338.3662,919.89483"
     id="path4595"
     inkscape:connector-curvature="0"
     sodipodi:nodetypes="cccccccccccccccccccc" />
  <path
     style="fill:none;stroke:#00ff00;stroke-width:1px;stroke-linecap:butt;stroke-linejoin:miter;stroke-opacity:1"
     d="M -4.125036,-68.661459 115.53329,93.590319 400.03675,92.498511 465.46933,159.95078 556.0078,206.10517 658.94508,256.12293 706.46544,295.72323 737.01424,334.1921 753.9858,379.44958 760.77442,447.33581 755.11724,501.64479 765.30017,572.92533 785.66604,621.57713 839.97502,673.62324 905.66638,759.73761 961.0388,860.31037 1028.925,912.35648 1145.463,959.87684 1246.1609,947.43103 1359.1807,914.84622"
     id="path4595-0"
     inkscape:connector-curvature="0"
     sodipodi:nodetypes="cccccccccccccccccccc" />
  <path
     style="fill:none;stroke:#00ff00;stroke-width:1.0238322px;stroke-linecap:butt;stroke-linejoin:miter;stroke-opacity:1"
     d="M -116.50751,-55.153707 115.41499,99.15851 371.59807,97.79202 440.51726,164.9207 535.8801,210.85369 644.30243,260.63149 694.35493,300.04182 726.53153,338.32614 744.40743,383.36651 751.55779,450.92707 745.59916,504.97551 756.32469,575.9141 777.77576,624.3325 834.97862,676.12893 904.17036,761.83018 962.49333,861.92047 1033.9969,913.7169 1156.7446,961.00929 1262.8082,948.62318 1346.7758,929.77194"
     id="path4595-8"
     inkscape:connector-curvature="0"
     sodipodi:nodetypes="cccccccccccccccccccc" />
  <circle
     style="fill:#ff0000;fill-rule:evenodd"
     id="path4627"
     cx="260.31219"
     cy="438.9014"
     r="27.201593" />
  <circle
     style="fill:#ff0000;fill-rule:evenodd"
     id="path4627-18"
     cx="759.80615"
     cy="726.66455"
     r="27.201593" />
  <circle
     style="fill:#ff0000;fill-rule:evenodd"
     id="path4627-4"
     cx="1389.949"
     cy="228.29398"
     r="27.201593" />
  <circle
     style="fill:#ff0000;fill-rule:evenodd"
     id="path4627-72"
     cx="1158.5201"
     cy="197.23479"
     r="27.201593" />
  <circle
     style="fill:#ff0000;fill-rule:evenodd"
     id="path4627-5"
     cx="982.96039"
     cy="154.29208"
     r="27.201593" />
  <circle
     style="fill:#ff0000;fill-rule:evenodd"
     id="path4627-720"
     cx="366.89609"
     cy="155.50137"
     r="27.201593" />
  <circle
     style="fill:#ff0000;fill-rule:evenodd"
     id="path4627-0"
     cx="299.1087"
     cy="802.0257"
     r="27.201593" />
  <circle
     style="fill:#ff0000;fill-rule:evenodd"
     id="path4627-53"
     cx="615.42725"
     cy="313.02393"
     r="27.201593" />
  <circle
     style="fill:#ff0000;fill-rule:evenodd"
     id="path4627-92"
     cx="1418.1201"
     cy="421.146"
     r="27.201593" />
  <rect
     style="fill:#00000f;fill-opacity:0.05882353;stroke:#00ff00;stroke-width:47.20000076;stroke-linejoin:miter;stroke-miterlimit:4;stroke-dasharray:none;stroke-opacity:1"
     id="rect4778"
     width="28.801687"
     height="28.801687"
     x="1099.2645"
     y="521.57196" />
  <circle
     style="fill:#ff0000;fill-rule:evenodd"
     id="path4627-22-9"
     cx="846.89734"
     cy="578.30835"
     r="27.201593" />
  <circle
     style="fill:#ff0000;fill-rule:evenodd"
     id="path4627-22-22"
     cx="1133.7028"
     cy="868.32867"
     r="27.201593" />
  <circle
     style="fill:#ff0000;fill-rule:evenodd"
     id="path4627-22-9-7"
     cx="456.51639"
     cy="954.8158"
     r="27.201593" />
  <circle
     style="fill:#ff0000;fill-rule:evenodd"
     id="path4627-22-9-0"
     cx="763.2738"
     cy="255.97256"
     r="27.201593" />
  <circle
     style="fill:#ff0000;fill-rule:evenodd"
     id="path4627-22-9-1"
     cx="680.60474"
     cy="582.52734"
     r="27.201593" />
  <circle
     style="fill:#ff0000;fill-rule:evenodd"
     id="path4627-22-9-74"
     cx="150.58392"
     cy="831.72772"
     r="27.201593" />
  <circle
     style="fill:#ff0000;fill-rule:evenodd"
     id="path4627-53-9"
     cx="617.4566"
     cy="161.93849"
     r="27.201593" />
  <circle
     style="fill:#ff0000;fill-rule:evenodd"
     id="path4627-53-2"
     cx="821.01379"
     cy="417.46301"
     r="27.201593" />
  <circle
     style="fill:#ff0000;fill-rule:evenodd"
     id="path4627-18-1"
     cx="199.60107"
     cy="652.20386"
     r="27.201593" />
  <circle
     style="fill:#ff0000;fill-rule:evenodd"
     id="path4627-18-6"
     cx="539.55292"
     cy="726.81165"
     r="27.201593" />
  <circle
     style="fill:#ff0000;fill-rule:evenodd"
     id="path4627-18-68"
     cx="366.70047"
     cy="604.52112"
     r="27.201593" />
  <circle
     style="fill:#ff0000;fill-rule:evenodd"
     id="path4627-18-19"
     cx="382.19565"
     cy="381.58066"
     r="27.201593" />
  <circle
     style="fill:#ff0000;fill-rule:evenodd"
     id="path4627-18-7"
     cx="1049.8145"
     cy="304.61212"
     r="27.201593" />
  <circle
     style="fill:#ff0000;fill-rule:evenodd"
     id="path4627-18-4"
     cx="1246.5419"
     cy="318.74478"
     r="27.201593" />
  <circle
     style="fill:#ff0000;fill-rule:evenodd"
     id="path4627-18-3"
     cx="1506.7833"
     cy="575.23529"
     r="27.201593" />
  <circle
     style="fill:#ff0000;fill-rule:evenodd"
     id="path4627-18-32"
     cx="1519.3771"
     cy="151.46883"
     r="27.201593" />
  <circle
     style="fill:#ff0000;fill-rule:evenodd"
     id="path4627-18-74"
     cx="1329.9921"
     cy="106.17471"
     r="27.201593" />
  <circle
     style="fill:#ff0000;fill-rule:evenodd"
     id="path4627-18-0"
     cx="982.37805"
     cy="760.19623"
     r="27.201593" />
  <circle
     style="fill:#ff0000;fill-rule:evenodd"
     id="path4627-18-5"
     cx="858.38861"
     cy="863.74786"
     r="27.201593" />
  <circle
     style="fill:#ff0000;fill-rule:evenodd"
     id="path4627-18-2"
     cx="232.49484"
     cy="264.58035"
     r="27.201593" />
  <circle
     style="fill:#ff0000;fill-rule:evenodd"
     id="path4627-5-6"
     cx="865.03693"
     cy="163.55936"
     r="27.201593" />
  <circle
     style="fill:#ff0000;fill-rule:evenodd"
     id="path4627-5-3"
     cx="683.92725"
     cy="436.41534"
     r="27.201593" />
  <circle
     style="fill:#ff0000;fill-rule:evenodd"
     id="path4627-5-33"
     cx="438.47601"
     cy="811.74127"
     r="27.201593" />
</svg>
